BDataFridayScript
…
#Making an effort ID column
B_Data <- B_Data %>% mutate(EFFORT_ID=as.numeric(paste(TRIP_ID,EFFORT_NUM,sep='')))

#Looking ar which species are most commonly caught
Species_tally <- B_Data %>% group_by(COMMON_NAME) %>% tally() %>% arrange(-n)

Species_tally 

## # A tibble: 31 x 2
##    COMMON_NAME                    n
##    <chr>                      <int>
##  1 TILEFISH (GOLDEN TILEFISH)   935
##  2 EEL,CONGER                   795
##  3 DOGFISH,CHAIN                789
##  4 HAKE,SPOTTED                 745
##  5 CRAB,JONAH                   591
##  6 DOGFISH,SPINY                524
##  7 SKATE,BARNDOOR               404
##  8 DOGFISH,SMOOTH               321
##  9 LOBSTER,AMERICAN             178
## 10 HAKE,SILVER (WHITING)        149
## #  with 21 more rows
…
